NAME : Abu
No 	 Amount 	 Profit 	 Total 
1	200000	16000	216000
2	216000	2160	218160
3	218160	28360	246520
4	246520	32047	278567
5	278567	2785	281352
6	281352	11254	292606
7	292606	5852	298458
8	298458	38799	337257
9	337257	3372	340629
10	340629	27250	367879
11	367879	25751	393630
12	393630	11808	405438
13	405438	16217	421655
14	421655	54815	476470
15	476470	33352	509822
16	509822	20392	530214
17	530214	58323	588537
18	588537	35312	623849
19	623849	43669	667518
20	667518	20025	687543
