NAME : Rama Samy
No 	 Amount 	 Profit 	 Total 
1	300000	24000	324000
2	324000	3240	327240
3	327240	42541	369781
4	369781	48071	417852
5	417852	4178	422030
6	422030	16881	438911
7	438911	8778	447689
8	447689	58199	505888
9	505888	5058	510946
10	510946	40875	551821
11	551821	38627	590448
12	590448	17713	608161
13	608161	24326	632487
14	632487	82223	714710
15	714710	50029	764739
16	764739	30589	795328
17	795328	87486	882814
18	882814	52968	935782
19	935782	65504	1001286
20	1001286	30038	1031324
21	1031324	20626	1051950
22	1051950	105195	1157145
23	1157145	150428	1307573
24	1307573	78454	1386027
25	1386027	27720	1413747
26	1413747	197924	1611671
27	1611671	145050	1756721
28	1756721	17567	1774288
29	1774288	17742	1792030
30	1792030	71681	1863711
